-- Merging decision tree log ---
manifest
ADDED from D:\SpayAS_V2.0.0_security\app\src\main\AndroidManifest.xml:2:1-630:12
	package
		ADDED from D:\SpayAS_V2.0.0_security\app\src\main\AndroidManifest.xml:3:11-49
		INJECTED from D:\SpayAS_V2.0.0_security\app\src\main\AndroidManifest.xml
		INJECTED from D:\SpayAS_V2.0.0_security\app\src\main\AndroidManifest.xml
	android:versionName
		INJECTED from D:\SpayAS_V2.0.0_security\app\src\main\AndroidManifest.xml
		INJECTED from D:\SpayAS_V2.0.0_security\app\src\main\AndroidManifest.xml
	xmlns:android
		ADDED from D:\SpayAS_V2.0.0_security\app\src\main\AndroidManifest.xml:2:11-69
	android:versionCode
		INJECTED from D:\SpayAS_V2.0.0_security\app\src\main\AndroidManifest.xml
		INJECTED from D:\SpayAS_V2.0.0_security\app\src\main\AndroidManifest.xml
uses-sdk
ADDED from D:\SpayAS_V2.0.0_security\app\src\main\AndroidManifest.xml:4:5-6:41
MERGED from [com.android.support.constraint:constraint-layout:1.0.2] C:\Users\admin\.android\build-cache\cb6cdcaf505ce1955a9454ba6acc8a033d7a7e51\output\AndroidManifest.xml:5:5-7:41
MERGED from [SpayAS_V2.0.0_security:pickerviewNew:unspecified] D:\SpayAS_V2.0.0_security\pickerviewNew\build\intermediates\bundles\default\AndroidManifest.xml:7:5-9:41
MERGED from [SpayAS_V2.0.0_security:datetimepicker-library:unspecified] D:\SpayAS_V2.0.0_security\datetimepicker-library\build\intermediates\bundles\default\AndroidManifest.xml:5:5-7:41
MERGED from [com.jakewharton:butterknife:8.8.1] C:\Users\admin\.android\build-cache\e71c4fa23a9a0d6a935545dc51a4226b900656a3\output\AndroidManifest.xml:5:5-43
	android:targetSdkVersion
		ADDED from D:\SpayAS_V2.0.0_security\app\src\main\AndroidManifest.xml:6:9-38
		INJECTED from D:\SpayAS_V2.0.0_security\app\src\main\AndroidManifest.xml
		INJECTED from D:\SpayAS_V2.0.0_security\app\src\main\AndroidManifest.xml
	android:minSdkVersion
		ADDED from D:\SpayAS_V2.0.0_security\app\src\main\AndroidManifest.xml:5:9-35
		INJECTED from D:\SpayAS_V2.0.0_security\app\src\main\AndroidManifest.xml
		INJECTED from D:\SpayAS_V2.0.0_security\app\src\main\AndroidManifest.xml
supports-screens
ADDED from D:\SpayAS_V2.0.0_security\app\src\main\AndroidManifest.xml:8:5-12:39
	android:largeScreens
		ADDED from D:\SpayAS_V2.0.0_security\app\src\main\AndroidManifest.xml:10:9-36
	android:smallScreens
		ADDED from D:\SpayAS_V2.0.0_security\app\src\main\AndroidManifest.xml:12:9-36
	android:normalScreens
		ADDED from D:\SpayAS_V2.0.0_security\app\src\main\AndroidManifest.xml:11:9-37
	android:anyDensity
		ADDED from D:\SpayAS_V2.0.0_security\app\src\main\AndroidManifest.xml:9:9-34
uses-permission#android.permission.CHANGE_CONFIGURATION
ADDED from D:\SpayAS_V2.0.0_security\app\src\main\AndroidManifest.xml:14:5-79
	android:name
		ADDED from D:\SpayAS_V2.0.0_security\app\src\main\AndroidManifest.xml:14:22-76
uses-permission#android.permission.VIBRATE
ADDED from D:\SpayAS_V2.0.0_security\app\src\main\AndroidManifest.xml:17:5-66
	android:name
		ADDED from D:\SpayAS_V2.0.0_security\app\src\main\AndroidManifest.xml:17:22-63
uses-permission#android.permission.INTERNET
ADDED from D:\SpayAS_V2.0.0_security\app\src\main\AndroidManifest.xml:19:5-67
	android:name
		ADDED from D:\SpayAS_V2.0.0_security\app\src\main\AndroidManifest.xml:19:22-64
uses-permission#android.permission.ACCESS_NETWORK_STATE
ADDED from D:\SpayAS_V2.0.0_security\app\src\main\AndroidManifest.xml:20:5-79
	android:name
		ADDED from D:\SpayAS_V2.0.0_security\app\src\main\AndroidManifest.xml:20:22-76
uses-permission#android.permission.ACCESS_WIFI_STATE
ADDED from D:\SpayAS_V2.0.0_security\app\src\main\AndroidManifest.xml:21:5-76
	android:name
		ADDED from D:\SpayAS_V2.0.0_security\app\src\main\AndroidManifest.xml:21:22-73
uses-permission#android.permission.CHANGE_WIFI_STATE
ADDED from D:\SpayAS_V2.0.0_security\app\src\main\AndroidManifest.xml:22:5-76
	android:name
		ADDED from D:\SpayAS_V2.0.0_security\app\src\main\AndroidManifest.xml:22:22-73
uses-permission#android.permission.WRITE_EXTERNAL_STORAGE
ADDED from D:\SpayAS_V2.0.0_security\app\src\main\AndroidManifest.xml:24:5-81
	android:name
		ADDED from D:\SpayAS_V2.0.0_security\app\src\main\AndroidManifest.xml:24:22-78
uses-permission#android.permission.MOUNT_UNMOUNT_FILESYSTEMS
ADDED from D:\SpayAS_V2.0.0_security\app\src\main\AndroidManifest.xml:25:5-84
	android:name
		ADDED from D:\SpayAS_V2.0.0_security\app\src\main\AndroidManifest.xml:25:22-81
uses-permission#android.permission.READ_PHONE_STATE
ADDED from D:\SpayAS_V2.0.0_security\app\src\main\AndroidManifest.xml:26:5-75
	android:name
		ADDED from D:\SpayAS_V2.0.0_security\app\src\main\AndroidManifest.xml:26:22-72
uses-permission#android.permission.GET_TASKS
ADDED from D:\SpayAS_V2.0.0_security\app\src\main\AndroidManifest.xml:27:5-68
	android:name
		ADDED from D:\SpayAS_V2.0.0_security\app\src\main\AndroidManifest.xml:27:22-65
uses-permission#android.permission.ACCESS_DOWNLOAD_MANAGER
ADDED from D:\SpayAS_V2.0.0_security\app\src\main\AndroidManifest.xml:29:5-82
	android:name
		ADDED from D:\SpayAS_V2.0.0_security\app\src\main\AndroidManifest.xml:29:22-79
uses-permission#android.permission.DOWNLOAD_WITHOUT_NOTIFICATION
ADDED from D:\SpayAS_V2.0.0_security\app\src\main\AndroidManifest.xml:31:5-88
	android:name
		ADDED from D:\SpayAS_V2.0.0_security\app\src\main\AndroidManifest.xml:31:22-85
uses-permission#android.permission.RECEIVE_BOOT_COMPLETED
ADDED from D:\SpayAS_V2.0.0_security\app\src\main\AndroidManifest.xml:33:5-81
	android:name
		ADDED from D:\SpayAS_V2.0.0_security\app\src\main\AndroidManifest.xml:33:22-78
uses-permission#android.permission.BROADCAST_STICKY
ADDED from D:\SpayAS_V2.0.0_security\app\src\main\AndroidManifest.xml:34:5-75
	android:name
		ADDED from D:\SpayAS_V2.0.0_security\app\src\main\AndroidManifest.xml:34:22-72
uses-permission#android.permission.DISABLE_KEYGUARD
ADDED from D:\SpayAS_V2.0.0_security\app\src\main\AndroidManifest.xml:35:5-75
	android:name
		ADDED from D:\SpayAS_V2.0.0_security\app\src\main\AndroidManifest.xml:35:22-72
uses-permission#com.android.launcher.permission.INSTALL_SHORTCUT
ADDED from D:\SpayAS_V2.0.0_security\app\src\main\AndroidManifest.xml:37:5-88
	android:name
		ADDED from D:\SpayAS_V2.0.0_security\app\src\main\AndroidManifest.xml:37:22-85
uses-permission#com.android.launcher.permission.UNINSTALL_SHORTCUT
ADDED from D:\SpayAS_V2.0.0_security\app\src\main\AndroidManifest.xml:38:5-90
	android:name
		ADDED from D:\SpayAS_V2.0.0_security\app\src\main\AndroidManifest.xml:38:22-87
uses-permission#com.android.launcher.permission.READ_SETTINGS
ADDED from D:\SpayAS_V2.0.0_security\app\src\main\AndroidManifest.xml:39:5-85
	android:name
		ADDED from D:\SpayAS_V2.0.0_security\app\src\main\AndroidManifest.xml:39:22-82
uses-permission#android.permission.CAMERA
ADDED from D:\SpayAS_V2.0.0_security\app\src\main\AndroidManifest.xml:41:5-65
	android:name
		ADDED from D:\SpayAS_V2.0.0_security\app\src\main\AndroidManifest.xml:41:22-62
uses-feature#android.hardware.camera
ADDED from D:\SpayAS_V2.0.0_security\app\src\main\AndroidManifest.xml:43:5-60
	android:name
		ADDED from D:\SpayAS_V2.0.0_security\app\src\main\AndroidManifest.xml:43:19-57
uses-feature#android.hardware.camera.autofocus
ADDED from D:\SpayAS_V2.0.0_security\app\src\main\AndroidManifest.xml:44:5-70
	android:name
		ADDED from D:\SpayAS_V2.0.0_security\app\src\main\AndroidManifest.xml:44:19-67
uses-permission#android.permission.FLASHLIGHT
ADDED from D:\SpayAS_V2.0.0_security\app\src\main\AndroidManifest.xml:46:5-69
	android:name
		ADDED from D:\SpayAS_V2.0.0_security\app\src\main\AndroidManifest.xml:46:22-66
uses-permission#android.permission.WRITE_SETTINGS
ADDED from D:\SpayAS_V2.0.0_security\app\src\main\AndroidManifest.xml:48:5-72
	android:name
		ADDED from D:\SpayAS_V2.0.0_security\app\src\main\AndroidManifest.xml:48:22-70
uses-permission#android.permission.MODIFY_AUDIO_SETTINGS
ADDED from D:\SpayAS_V2.0.0_security\app\src\main\AndroidManifest.xml:52:5-80
	android:name
		ADDED from D:\SpayAS_V2.0.0_security\app\src\main\AndroidManifest.xml:52:22-77
uses-permission#android.permission.CHANGE_NETWORK_STATE
ADDED from D:\SpayAS_V2.0.0_security\app\src\main\AndroidManifest.xml:56:5-79
	android:name
		ADDED from D:\SpayAS_V2.0.0_security\app\src\main\AndroidManifest.xml:56:22-76
uses-permission#android.permission.BLUETOOTH
ADDED from D:\SpayAS_V2.0.0_security\app\src\main\AndroidManifest.xml:59:5-68
	android:name
		ADDED from D:\SpayAS_V2.0.0_security\app\src\main\AndroidManifest.xml:59:22-65
uses-permission#android.permission.BLUETOOTH_ADMIN
ADDED from D:\SpayAS_V2.0.0_security\app\src\main\AndroidManifest.xml:60:5-74
	android:name
		ADDED from D:\SpayAS_V2.0.0_security\app\src\main\AndroidManifest.xml:60:22-71
uses-permission#android.permission.READ_LOGS
ADDED from D:\SpayAS_V2.0.0_security\app\src\main\AndroidManifest.xml:61:5-68
	android:name
		ADDED from D:\SpayAS_V2.0.0_security\app\src\main\AndroidManifest.xml:61:22-65
uses-permission#android.permission.WAKE_LOCK
ADDED from D:\SpayAS_V2.0.0_security\app\src\main\AndroidManifest.xml:69:5-68
	android:name
		ADDED from D:\SpayAS_V2.0.0_security\app\src\main\AndroidManifest.xml:69:22-65
uses-permission#android.permission.ACCESS_FINE_LOCATION
ADDED from D:\SpayAS_V2.0.0_security\app\src\main\AndroidManifest.xml:78:5-79
	android:name
		ADDED from D:\SpayAS_V2.0.0_security\app\src\main\AndroidManifest.xml:78:22-76
uses-permission#android.permission.ACCESS_COARSE_LOCATION
ADDED from D:\SpayAS_V2.0.0_security\app\src\main\AndroidManifest.xml:79:5-81
	android:name
		ADDED from D:\SpayAS_V2.0.0_security\app\src\main\AndroidManifest.xml:79:22-78
uses-permission#android.permission.SYSTEM_ALERT_WINDOW
ADDED from D:\SpayAS_V2.0.0_security\app\src\main\AndroidManifest.xml:81:5-78
	android:name
		ADDED from D:\SpayAS_V2.0.0_security\app\src\main\AndroidManifest.xml:81:22-75
uses-permission#getui.permission.GetuiService.cn.swiftpass.enterprise.intl
ADDED from D:\SpayAS_V2.0.0_security\app\src\main\AndroidManifest.xml:83:5-98
	android:name
		ADDED from D:\SpayAS_V2.0.0_security\app\src\main\AndroidManifest.xml:83:22-95
uses-permission#android.permission.RECORD_AUDIO
ADDED from D:\SpayAS_V2.0.0_security\app\src\main\AndroidManifest.xml:85:5-71
	android:name
		ADDED from D:\SpayAS_V2.0.0_security\app\src\main\AndroidManifest.xml:85:22-68
uses-permission#android.permission.RECEIVE_USER_PRESENT
ADDED from D:\SpayAS_V2.0.0_security\app\src\main\AndroidManifest.xml:87:5-79
	android:name
		ADDED from D:\SpayAS_V2.0.0_security\app\src\main\AndroidManifest.xml:87:22-76
uses-permission#cn.swiftpass.enterprise.my_permission
ADDED from D:\SpayAS_V2.0.0_security\app\src\main\AndroidManifest.xml:89:5-77
	android:name
		ADDED from D:\SpayAS_V2.0.0_security\app\src\main\AndroidManifest.xml:89:22-74
permission#cn.swiftpass.enterprise.my_permission
ADDED from D:\SpayAS_V2.0.0_security\app\src\main\AndroidManifest.xml:91:5-94:18
	android:protectionLevel
		ADDED from D:\SpayAS_V2.0.0_security\app\src\main\AndroidManifest.xml:93:9-44
	android:name
		ADDED from D:\SpayAS_V2.0.0_security\app\src\main\AndroidManifest.xml:92:9-61
permission#getui.permission.GetuiService.cn.swiftpass.enterprise.intl
ADDED from D:\SpayAS_V2.0.0_security\app\src\main\AndroidManifest.xml:96:5-98:55
	android:protectionLevel
		ADDED from D:\SpayAS_V2.0.0_security\app\src\main\AndroidManifest.xml:98:9-41
	android:name
		ADDED from D:\SpayAS_V2.0.0_security\app\src\main\AndroidManifest.xml:97:9-82
application
ADDED from D:\SpayAS_V2.0.0_security\app\src\main\AndroidManifest.xml:102:5-629:19
MERGED from [com.android.support.constraint:constraint-layout:1.0.2] C:\Users\admin\.android\build-cache\cb6cdcaf505ce1955a9454ba6acc8a033d7a7e51\output\AndroidManifest.xml:9:5-20
MERGED from [SpayAS_V2.0.0_security:datetimepicker-library:unspecified] D:\SpayAS_V2.0.0_security\datetimepicker-library\build\intermediates\bundles\default\AndroidManifest.xml:9:5-22:19
	android:label
		ADDED from D:\SpayAS_V2.0.0_security\app\src\main\AndroidManifest.xml:107:9-41
	android:hardwareAccelerated
		ADDED from D:\SpayAS_V2.0.0_security\app\src\main\AndroidManifest.xml:105:9-44
	android:allowBackup
		ADDED from D:\SpayAS_V2.0.0_security\app\src\main\AndroidManifest.xml:104:9-36
	android:icon
		ADDED from D:\SpayAS_V2.0.0_security\app\src\main\AndroidManifest.xml:106:9-47
	android:theme
		ADDED from D:\SpayAS_V2.0.0_security\app\src\main\AndroidManifest.xml:108:9-44
	android:name
		ADDED from D:\SpayAS_V2.0.0_security\app\src\main\AndroidManifest.xml:103:9-63
activity#cn.swiftpass.enterprise.ui.activity.GuideActivity
ADDED from D:\SpayAS_V2.0.0_security\app\src\main\AndroidManifest.xml:110:9-123:20
	android:screenOrientation
		ADDED from D:\SpayAS_V2.0.0_security\app\src\main\AndroidManifest.xml:114:13-49
	android:label
		ADDED from D:\SpayAS_V2.0.0_security\app\src\main\AndroidManifest.xml:112:13-45
	android:supportsRtl
		ADDED from D:\SpayAS_V2.0.0_security\app\src\main\AndroidManifest.xml:115:13-39
	android:launchMode
		ADDED from D:\SpayAS_V2.0.0_security\app\src\main\AndroidManifest.xml:113:13-43
	android:windowSoftInputMode
		ADDED from D:\SpayAS_V2.0.0_security\app\src\main\AndroidManifest.xml:117:13-72
	android:theme
		ADDED from D:\SpayAS_V2.0.0_security\app\src\main\AndroidManifest.xml:116:13-60
	android:name
		ADDED from D:\SpayAS_V2.0.0_security\app\src\main\AndroidManifest.xml:111:13-77
intent-filter#android.intent.action.MAIN+android.intent.category.LAUNCHER
ADDED from D:\SpayAS_V2.0.0_security\app\src\main\AndroidManifest.xml:118:13-122:29
action#android.intent.action.MAIN
ADDED from D:\SpayAS_V2.0.0_security\app\src\main\AndroidManifest.xml:119:17-69
	android:name
		ADDED from D:\SpayAS_V2.0.0_security\app\src\main\AndroidManifest.xml:119:25-66
category#android.intent.category.LAUNCHER
ADDED from D:\SpayAS_V2.0.0_security\app\src\main\AndroidManifest.xml:121:17-77
	android:name
		ADDED from D:\SpayAS_V2.0.0_security\app\src\main\AndroidManifest.xml:121:27-74
meta-data#TA_APPKEY
ADDED from D:\SpayAS_V2.0.0_security\app\src\main\AndroidManifest.xml:127:9-129:44
	android:value
		ADDED from D:\SpayAS_V2.0.0_security\app\src\main\AndroidManifest.xml:129:13-41
	android:name
		ADDED from D:\SpayAS_V2.0.0_security\app\src\main\AndroidManifest.xml:128:13-37
meta-data#InstallChannel
ADDED from D:\SpayAS_V2.0.0_security\app\src\main\AndroidManifest.xml:130:9-132:36
	android:value
		ADDED from D:\SpayAS_V2.0.0_security\app\src\main\AndroidManifest.xml:132:13-33
	android:name
		ADDED from D:\SpayAS_V2.0.0_security\app\src\main\AndroidManifest.xml:131:13-42
activity#cn.swiftpass.enterprise.ui.activity.pos.BlueToothDialog
ADDED from D:\SpayAS_V2.0.0_security\app\src\main\AndroidManifest.xml:134:9-139:57
	android:screenOrientation
		ADDED from D:\SpayAS_V2.0.0_security\app\src\main\AndroidManifest.xml:138:13-49
	android:label
		ADDED from D:\SpayAS_V2.0.0_security\app\src\main\AndroidManifest.xml:136:13-45
	android:launchMode
		ADDED from D:\SpayAS_V2.0.0_security\app\src\main\AndroidManifest.xml:137:13-44
	android:theme
		ADDED from D:\SpayAS_V2.0.0_security\app\src\main\AndroidManifest.xml:139:13-54
	android:name
		ADDED from D:\SpayAS_V2.0.0_security\app\src\main\AndroidManifest.xml:135:13-83
activity#cn.swiftpass.enterprise.ui.activity.PayActivity
ADDED from D:\SpayAS_V2.0.0_security\app\src\main\AndroidManifest.xml:142:9-147:84
	android:screenOrientation
		ADDED from D:\SpayAS_V2.0.0_security\app\src\main\AndroidManifest.xml:145:13-49
	android:label
		ADDED from D:\SpayAS_V2.0.0_security\app\src\main\AndroidManifest.xml:144:13-45
	android:launchMode
		ADDED from D:\SpayAS_V2.0.0_security\app\src\main\AndroidManifest.xml:146:13-44
	android:windowSoftInputMode
		ADDED from D:\SpayAS_V2.0.0_security\app\src\main\AndroidManifest.xml:147:13-72
	android:name
		ADDED from D:\SpayAS_V2.0.0_security\app\src\main\AndroidManifest.xml:143:13-75
activity#cn.swiftpass.enterprise.ui.activity.spayMainTabActivity
ADDED from D:\SpayAS_V2.0.0_security\app\src\main\AndroidManifest.xml:149:9-153:20
	android:screenOrientation
		ADDED from D:\SpayAS_V2.0.0_security\app\src\main\AndroidManifest.xml:151:13-49
	android:launchMode
		ADDED from D:\SpayAS_V2.0.0_security\app\src\main\AndroidManifest.xml:152:13-43
	android:name
		ADDED from D:\SpayAS_V2.0.0_security\app\src\main\AndroidManifest.xml:150:13-83
activity#cn.swiftpass.enterprise.ui.activity.WelcomeActivity
ADDED from D:\SpayAS_V2.0.0_security\app\src\main\AndroidManifest.xml:155:9-159:20
	android:screenOrientation
		ADDED from D:\SpayAS_V2.0.0_security\app\src\main\AndroidManifest.xml:157:13-49
	android:launchMode
		ADDED from D:\SpayAS_V2.0.0_security\app\src\main\AndroidManifest.xml:158:13-43
	android:name
		ADDED from D:\SpayAS_V2.0.0_security\app\src\main\AndroidManifest.xml:156:13-79
activity#cn.swiftpass.enterprise.ui.activity.bill.OrderRefundActivity
ADDED from D:\SpayAS_V2.0.0_security\app\src\main\AndroidManifest.xml:161:9-164:46
	android:screenOrientation
		ADDED from D:\SpayAS_V2.0.0_security\app\src\main\AndroidManifest.xml:163:13-49
	android:launchMode
		ADDED from D:\SpayAS_V2.0.0_security\app\src\main\AndroidManifest.xml:164:13-44
	android:name
		ADDED from D:\SpayAS_V2.0.0_security\app\src\main\AndroidManifest.xml:162:13-88
activity#cn.swiftpass.enterprise.ui.activity.bill.OrderRefundLoginConfirmActivity
ADDED from D:\SpayAS_V2.0.0_security\app\src\main\AndroidManifest.xml:165:9-169:46
	android:screenOrientation
		ADDED from D:\SpayAS_V2.0.0_security\app\src\main\AndroidManifest.xml:168:13-49
	android:launchMode
		ADDED from D:\SpayAS_V2.0.0_security\app\src\main\AndroidManifest.xml:169:13-44
	android:windowSoftInputMode
		ADDED from D:\SpayAS_V2.0.0_security\app\src\main\AndroidManifest.xml:167:13-68
	android:name
		ADDED from D:\SpayAS_V2.0.0_security\app\src\main\AndroidManifest.xml:166:13-100
activity#cn.swiftpass.enterprise.ui.activity.bill.OrderRefundCompleteActivity
ADDED from D:\SpayAS_V2.0.0_security\app\src\main\AndroidManifest.xml:171:9-174:46
	android:screenOrientation
		ADDED from D:\SpayAS_V2.0.0_security\app\src\main\AndroidManifest.xml:173:13-49
	android:launchMode
		ADDED from D:\SpayAS_V2.0.0_security\app\src\main\AndroidManifest.xml:174:13-44
	android:name
		ADDED from D:\SpayAS_V2.0.0_security\app\src\main\AndroidManifest.xml:172:13-96
activity#cn.swiftpass.enterprise.ui.activity.PayResultActivity
ADDED from D:\SpayAS_V2.0.0_security\app\src\main\AndroidManifest.xml:176:9-179:52
	android:screenOrientation
		ADDED from D:\SpayAS_V2.0.0_security\app\src\main\AndroidManifest.xml:179:13-49
	android:launchMode
		ADDED from D:\SpayAS_V2.0.0_security\app\src\main\AndroidManifest.xml:178:13-44
	android:name
		ADDED from D:\SpayAS_V2.0.0_security\app\src\main\AndroidManifest.xml:177:13-81
activity#cn.swiftpass.enterprise.ui.activity.OrderStreamActivity
ADDED from D:\SpayAS_V2.0.0_security\app\src\main\AndroidManifest.xml:183:9-187:75
	android:screenOrientation
		ADDED from D:\SpayAS_V2.0.0_security\app\src\main\AndroidManifest.xml:185:13-49
	android:launchMode
		ADDED from D:\SpayAS_V2.0.0_security\app\src\main\AndroidManifest.xml:186:13-44
	android:windowSoftInputMode
		ADDED from D:\SpayAS_V2.0.0_security\app\src\main\AndroidManifest.xml:187:13-72
	android:name
		ADDED from D:\SpayAS_V2.0.0_security\app\src\main\AndroidManifest.xml:184:13-83
activity#cn.swiftpass.enterprise.ui.activity.OrderDetailsActivity
ADDED from D:\SpayAS_V2.0.0_security\app\src\main\AndroidManifest.xml:188:9-192:75
	android:screenOrientation
		ADDED from D:\SpayAS_V2.0.0_security\app\src\main\AndroidManifest.xml:190:13-49
	android:launchMode
		ADDED from D:\SpayAS_V2.0.0_security\app\src\main\AndroidManifest.xml:191:13-44
	android:windowSoftInputMode
		ADDED from D:\SpayAS_V2.0.0_security\app\src\main\AndroidManifest.xml:192:13-72
	android:name
		ADDED from D:\SpayAS_V2.0.0_security\app\src\main\AndroidManifest.xml:189:13-84
activity#cn.swiftpass.enterprise.ui.activity.RefundActivity
ADDED from D:\SpayAS_V2.0.0_security\app\src\main\AndroidManifest.xml:193:9-197:75
	android:screenOrientation
		ADDED from D:\SpayAS_V2.0.0_security\app\src\main\AndroidManifest.xml:195:13-49
	android:launchMode
		ADDED from D:\SpayAS_V2.0.0_security\app\src\main\AndroidManifest.xml:196:13-44
	android:windowSoftInputMode
		ADDED from D:\SpayAS_V2.0.0_security\app\src\main\AndroidManifest.xml:197:13-72
	android:name
		ADDED from D:\SpayAS_V2.0.0_security\app\src\main\AndroidManifest.xml:194:13-78
activity#cn.swiftpass.enterprise.ui.activity.user.RefundManagerActivity
ADDED from D:\SpayAS_V2.0.0_security\app\src\main\AndroidManifest.xml:198:9-201:46
	android:screenOrientation
		ADDED from D:\SpayAS_V2.0.0_security\app\src\main\AndroidManifest.xml:200:13-49
	android:launchMode
		ADDED from D:\SpayAS_V2.0.0_security\app\src\main\AndroidManifest.xml:201:13-44
	android:name
		ADDED from D:\SpayAS_V2.0.0_security\app\src\main\AndroidManifest.xml:199:13-90
activity#cn.swiftpass.enterprise.ui.activity.user.SearchCodeResultActivity
ADDED from D:\SpayAS_V2.0.0_security\app\src\main\AndroidManifest.xml:202:9-205:46
	android:screenOrientation
		ADDED from D:\SpayAS_V2.0.0_security\app\src\main\AndroidManifest.xml:204:13-49
	android:launchMode
		ADDED from D:\SpayAS_V2.0.0_security\app\src\main\AndroidManifest.xml:205:13-44
	android:name
		ADDED from D:\SpayAS_V2.0.0_security\app\src\main\AndroidManifest.xml:203:13-93
activity#cn.swiftpass.enterprise.ui.activity.user.RefundHistoryActivity
ADDED from D:\SpayAS_V2.0.0_security\app\src\main\AndroidManifest.xml:206:9-210:75
	android:screenOrientation
		ADDED from D:\SpayAS_V2.0.0_security\app\src\main\AndroidManifest.xml:208:13-49
	android:launchMode
		ADDED from D:\SpayAS_V2.0.0_security\app\src\main\AndroidManifest.xml:209:13-44
	android:windowSoftInputMode
		ADDED from D:\SpayAS_V2.0.0_security\app\src\main\AndroidManifest.xml:210:13-72
	android:name
		ADDED from D:\SpayAS_V2.0.0_security\app\src\main\AndroidManifest.xml:207:13-90
activity#cn.swiftpass.enterprise.ui.activity.user.GoodsNameSetting
ADDED from D:\SpayAS_V2.0.0_security\app\src\main\AndroidManifest.xml:211:9-215:75
	android:screenOrientation
		ADDED from D:\SpayAS_V2.0.0_security\app\src\main\AndroidManifest.xml:213:13-49
	android:launchMode
		ADDED from D:\SpayAS_V2.0.0_security\app\src\main\AndroidManifest.xml:214:13-44
	android:windowSoftInputMode
		ADDED from D:\SpayAS_V2.0.0_security\app\src\main\AndroidManifest.xml:215:13-72
	android:name
		ADDED from D:\SpayAS_V2.0.0_security\app\src\main\AndroidManifest.xml:212:13-85
activity#cn.swiftpass.enterprise.ui.activity.scan.ScanCodeLoginActivity
ADDED from D:\SpayAS_V2.0.0_security\app\src\main\AndroidManifest.xml:218:9-222:75
	android:screenOrientation
		ADDED from D:\SpayAS_V2.0.0_security\app\src\main\AndroidManifest.xml:220:13-49
	android:launchMode
		ADDED from D:\SpayAS_V2.0.0_security\app\src\main\AndroidManifest.xml:221:13-44
	android:windowSoftInputMode
		ADDED from D:\SpayAS_V2.0.0_security\app\src\main\AndroidManifest.xml:222:13-72
	android:name
		ADDED from D:\SpayAS_V2.0.0_security\app\src\main\AndroidManifest.xml:219:13-90
activity#cn.swiftpass.enterprise.ui.activity.settle.SettleCashierManager
ADDED from D:\SpayAS_V2.0.0_security\app\src\main\AndroidManifest.xml:223:9-227:75
	android:screenOrientation
		ADDED from D:\SpayAS_V2.0.0_security\app\src\main\AndroidManifest.xml:225:13-49
	android:launchMode
		ADDED from D:\SpayAS_V2.0.0_security\app\src\main\AndroidManifest.xml:226:13-44
	android:windowSoftInputMode
		ADDED from D:\SpayAS_V2.0.0_security\app\src\main\AndroidManifest.xml:227:13-72
	android:name
		ADDED from D:\SpayAS_V2.0.0_security\app\src\main\AndroidManifest.xml:224:13-91
activity#cn.swiftpass.enterprise.ui.activity.ChanagePwdActivity
ADDED from D:\SpayAS_V2.0.0_security\app\src\main\AndroidManifest.xml:231:9-235:75
	android:screenOrientation
		ADDED from D:\SpayAS_V2.0.0_security\app\src\main\AndroidManifest.xml:233:13-49
	android:launchMode
		ADDED from D:\SpayAS_V2.0.0_security\app\src\main\AndroidManifest.xml:234:13-44
	android:windowSoftInputMode
		ADDED from D:\SpayAS_V2.0.0_security\app\src\main\AndroidManifest.xml:235:13-72
	android:name
		ADDED from D:\SpayAS_V2.0.0_security\app\src\main\AndroidManifest.xml:232:13-82
activity#cn.swiftpass.enterprise.ui.activity.setting.SettingSwitchLanActivity
ADDED from D:\SpayAS_V2.0.0_security\app\src\main\AndroidManifest.xml:238:9-241:46
	android:screenOrientation
		ADDED from D:\SpayAS_V2.0.0_security\app\src\main\AndroidManifest.xml:240:13-49
	android:launchMode
		ADDED from D:\SpayAS_V2.0.0_security\app\src\main\AndroidManifest.xml:241:13-44
	android:name
		ADDED from D:\SpayAS_V2.0.0_security\app\src\main\AndroidManifest.xml:239:13-96
activity#cn.swiftpass.enterprise.ui.activity.SettingMoreActivity
ADDED from D:\SpayAS_V2.0.0_security\app\src\main\AndroidManifest.xml:244:9-248:52
	android:screenOrientation
		ADDED from D:\SpayAS_V2.0.0_security\app\src\main\AndroidManifest.xml:248:13-49
	android:launchMode
		ADDED from D:\SpayAS_V2.0.0_security\app\src\main\AndroidManifest.xml:247:13-44
	android:configChanges
		ADDED from D:\SpayAS_V2.0.0_security\app\src\main\AndroidManifest.xml:246:13-43
	android:name
		ADDED from D:\SpayAS_V2.0.0_security\app\src\main\AndroidManifest.xml:245:13-83
activity#cn.swiftpass.enterprise.ui.activity.SettingActivity
ADDED from D:\SpayAS_V2.0.0_security\app\src\main\AndroidManifest.xml:249:9-253:52
	android:screenOrientation
		ADDED from D:\SpayAS_V2.0.0_security\app\src\main\AndroidManifest.xml:253:13-49
	android:launchMode
		ADDED from D:\SpayAS_V2.0.0_security\app\src\main\AndroidManifest.xml:252:13-44
	android:configChanges
		ADDED from D:\SpayAS_V2.0.0_security\app\src\main\AndroidManifest.xml:251:13-43
	android:name
		ADDED from D:\SpayAS_V2.0.0_security\app\src\main\AndroidManifest.xml:250:13-79
activity#cn.swiftpass.enterprise.ui.activity.AboutUsActivity
ADDED from D:\SpayAS_V2.0.0_security\app\src\main\AndroidManifest.xml:255:9-258:46
	android:screenOrientation
		ADDED from D:\SpayAS_V2.0.0_security\app\src\main\AndroidManifest.xml:257:13-49
	android:launchMode
		ADDED from D:\SpayAS_V2.0.0_security\app\src\main\AndroidManifest.xml:258:13-44
	android:name
		ADDED from D:\SpayAS_V2.0.0_security\app\src\main\AndroidManifest.xml:256:13-79
activity#cn.swiftpass.enterprise.ui.activity.MainActivity
ADDED from D:\SpayAS_V2.0.0_security\app\src\main\AndroidManifest.xml:259:9-262:45
	android:screenOrientation
		ADDED from D:\SpayAS_V2.0.0_security\app\src\main\AndroidManifest.xml:261:13-49
	android:launchMode
		ADDED from D:\SpayAS_V2.0.0_security\app\src\main\AndroidManifest.xml:262:13-43
	android:name
		ADDED from D:\SpayAS_V2.0.0_security\app\src\main\AndroidManifest.xml:260:13-76
activity#cn.swiftpass.enterprise.ui.activity.ContentTextActivity
ADDED from D:\SpayAS_V2.0.0_security\app\src\main\AndroidManifest.xml:263:9-266:46
	android:screenOrientation
		ADDED from D:\SpayAS_V2.0.0_security\app\src\main\AndroidManifest.xml:265:13-49
	android:launchMode
		ADDED from D:\SpayAS_V2.0.0_security\app\src\main\AndroidManifest.xml:266:13-44
	android:name
		ADDED from D:\SpayAS_V2.0.0_security\app\src\main\AndroidManifest.xml:264:13-83
activity#cn.swiftpass.enterprise.ui.activity.ShowQRcodeActivity
ADDED from D:\SpayAS_V2.0.0_security\app\src\main\AndroidManifest.xml:267:9-271:52
	android:screenOrientation
		ADDED from D:\SpayAS_V2.0.0_security\app\src\main\AndroidManifest.xml:271:13-49
	android:label
		ADDED from D:\SpayAS_V2.0.0_security\app\src\main\AndroidManifest.xml:269:13-45
	android:launchMode
		ADDED from D:\SpayAS_V2.0.0_security\app\src\main\AndroidManifest.xml:270:13-44
	android:name
		ADDED from D:\SpayAS_V2.0.0_security\app\src\main\AndroidManifest.xml:268:13-82
activity#cn.swiftpass.enterprise.ui.activity.WelcomeGuideActivity
ADDED from D:\SpayAS_V2.0.0_security\app\src\main\AndroidManifest.xml:273:9-276:46
	android:screenOrientation
		ADDED from D:\SpayAS_V2.0.0_security\app\src\main\AndroidManifest.xml:275:13-49
	android:launchMode
		ADDED from D:\SpayAS_V2.0.0_security\app\src\main\AndroidManifest.xml:276:13-44
	android:name
		ADDED from D:\SpayAS_V2.0.0_security\app\src\main\AndroidManifest.xml:274:13-84
activity#cn.swiftpass.enterprise.ui.activity.bill.BillMainActivity
ADDED from D:\SpayAS_V2.0.0_security\app\src\main\AndroidManifest.xml:277:9-280:46
	android:screenOrientation
		ADDED from D:\SpayAS_V2.0.0_security\app\src\main\AndroidManifest.xml:279:13-49
	android:launchMode
		ADDED from D:\SpayAS_V2.0.0_security\app\src\main\AndroidManifest.xml:280:13-44
	android:name
		ADDED from D:\SpayAS_V2.0.0_security\app\src\main\AndroidManifest.xml:278:13-85
activity#cn.swiftpass.enterprise.ui.activity.bill.OrderSearchActivity
ADDED from D:\SpayAS_V2.0.0_security\app\src\main\AndroidManifest.xml:281:9-284:46
	android:screenOrientation
		ADDED from D:\SpayAS_V2.0.0_security\app\src\main\AndroidManifest.xml:283:13-49
	android:launchMode
		ADDED from D:\SpayAS_V2.0.0_security\app\src\main\AndroidManifest.xml:284:13-44
	android:name
		ADDED from D:\SpayAS_V2.0.0_security\app\src\main\AndroidManifest.xml:282:13-88
activity#cn.swiftpass.enterprise.ui.activity.print.BluetoothSettingActivity
ADDED from D:\SpayAS_V2.0.0_security\app\src\main\AndroidManifest.xml:285:9-288:46
	android:screenOrientation
		ADDED from D:\SpayAS_V2.0.0_security\app\src\main\AndroidManifest.xml:287:13-49
	android:launchMode
		ADDED from D:\SpayAS_V2.0.0_security\app\src\main\AndroidManifest.xml:288:13-44
	android:name
		ADDED from D:\SpayAS_V2.0.0_security\app\src\main\AndroidManifest.xml:286:13-94
activity#cn.swiftpass.enterprise.ui.activity.bill.ReportActivity
ADDED from D:\SpayAS_V2.0.0_security\app\src\main\AndroidManifest.xml:289:9-292:46
	android:screenOrientation
		ADDED from D:\SpayAS_V2.0.0_security\app\src\main\AndroidManifest.xml:291:13-49
	android:launchMode
		ADDED from D:\SpayAS_V2.0.0_security\app\src\main\AndroidManifest.xml:292:13-44
	android:name
		ADDED from D:\SpayAS_V2.0.0_security\app\src\main\AndroidManifest.xml:290:13-83
activity#cn.swiftpass.enterprise.ui.activity.bill.DateChoiceActivity
ADDED from D:\SpayAS_V2.0.0_security\app\src\main\AndroidManifest.xml:293:9-296:46
	android:screenOrientation
		ADDED from D:\SpayAS_V2.0.0_security\app\src\main\AndroidManifest.xml:295:13-49
	android:launchMode
		ADDED from D:\SpayAS_V2.0.0_security\app\src\main\AndroidManifest.xml:296:13-44
	android:name
		ADDED from D:\SpayAS_V2.0.0_security\app\src\main\AndroidManifest.xml:294:13-87
activity#cn.swiftpass.enterprise.ui.activity.bill.UserListActivity
ADDED from D:\SpayAS_V2.0.0_security\app\src\main\AndroidManifest.xml:297:9-300:46
	android:screenOrientation
		ADDED from D:\SpayAS_V2.0.0_security\app\src\main\AndroidManifest.xml:299:13-49
	android:launchMode
		ADDED from D:\SpayAS_V2.0.0_security\app\src\main\AndroidManifest.xml:300:13-44
	android:name
		ADDED from D:\SpayAS_V2.0.0_security\app\src\main\AndroidManifest.xml:298:13-85
activity#cn.swiftpass.enterprise.ui.activity.setting.SettingAboutActivity
ADDED from D:\SpayAS_V2.0.0_security\app\src\main\AndroidManifest.xml:301:9-304:46
	android:screenOrientation
		ADDED from D:\SpayAS_V2.0.0_security\app\src\main\AndroidManifest.xml:303:13-49
	android:launchMode
		ADDED from D:\SpayAS_V2.0.0_security\app\src\main\AndroidManifest.xml:304:13-44
	android:name
		ADDED from D:\SpayAS_V2.0.0_security\app\src\main\AndroidManifest.xml:302:13-92
activity#cn.swiftpass.enterprise.ui.activity.OrderTotalActivity
ADDED from D:\SpayAS_V2.0.0_security\app\src\main\AndroidManifest.xml:306:9-310:46
	android:screenOrientation
		ADDED from D:\SpayAS_V2.0.0_security\app\src\main\AndroidManifest.xml:309:13-49
	android:label
		ADDED from D:\SpayAS_V2.0.0_security\app\src\main\AndroidManifest.xml:308:13-45
	android:launchMode
		ADDED from D:\SpayAS_V2.0.0_security\app\src\main\AndroidManifest.xml:310:13-44
	android:name
		ADDED from D:\SpayAS_V2.0.0_security\app\src\main\AndroidManifest.xml:307:13-82
activity#cn.swiftpass.enterprise.ui.activity.FeedbackActivity
ADDED from D:\SpayAS_V2.0.0_security\app\src\main\AndroidManifest.xml:311:9-315:46
	android:screenOrientation
		ADDED from D:\SpayAS_V2.0.0_security\app\src\main\AndroidManifest.xml:314:13-49
	android:label
		ADDED from D:\SpayAS_V2.0.0_security\app\src\main\AndroidManifest.xml:313:13-45
	android:launchMode
		ADDED from D:\SpayAS_V2.0.0_security\app\src\main\AndroidManifest.xml:315:13-44
	android:name
		ADDED from D:\SpayAS_V2.0.0_security\app\src\main\AndroidManifest.xml:312:13-80
activity#cn.swiftpass.enterprise.ui.activity.IntroductionActivity
ADDED from D:\SpayAS_V2.0.0_security\app\src\main\AndroidManifest.xml:317:9-321:46
	android:screenOrientation
		ADDED from D:\SpayAS_V2.0.0_security\app\src\main\AndroidManifest.xml:320:13-49
	android:label
		ADDED from D:\SpayAS_V2.0.0_security\app\src\main\AndroidManifest.xml:319:13-45
	android:launchMode
		ADDED from D:\SpayAS_V2.0.0_security\app\src\main\AndroidManifest.xml:321:13-44
	android:name
		ADDED from D:\SpayAS_V2.0.0_security\app\src\main\AndroidManifest.xml:318:13-84
activity#cn.swiftpass.enterprise.ui.activity.scan.CaptureActivity
ADDED from D:\SpayAS_V2.0.0_security\app\src\main\AndroidManifest.xml:324:9-330:72
	android:screenOrientation
		ADDED from D:\SpayAS_V2.0.0_security\app\src\main\AndroidManifest.xml:328:13-49
	android:hardwareAccelerated
		ADDED from D:\SpayAS_V2.0.0_security\app\src\main\AndroidManifest.xml:327:13-47
	android:launchMode
		ADDED from D:\SpayAS_V2.0.0_security\app\src\main\AndroidManifest.xml:329:13-44
	android:windowSoftInputMode
		ADDED from D:\SpayAS_V2.0.0_security\app\src\main\AndroidManifest.xml:330:13-60
	android:configChanges
		ADDED from D:\SpayAS_V2.0.0_security\app\src\main\AndroidManifest.xml:326:13-63
	android:name
		ADDED from D:\SpayAS_V2.0.0_security\app\src\main\AndroidManifest.xml:325:13-84
activity#cn.swiftpass.enterprise.ui.activity.scan.ScanbindActivity
ADDED from D:\SpayAS_V2.0.0_security\app\src\main\AndroidManifest.xml:331:9-337:72
	android:screenOrientation
		ADDED from D:\SpayAS_V2.0.0_security\app\src\main\AndroidManifest.xml:335:13-49
	android:hardwareAccelerated
		ADDED from D:\SpayAS_V2.0.0_security\app\src\main\AndroidManifest.xml:334:13-47
	android:launchMode
		ADDED from D:\SpayAS_V2.0.0_security\app\src\main\AndroidManifest.xml:336:13-44
	android:windowSoftInputMode
		ADDED from D:\SpayAS_V2.0.0_security\app\src\main\AndroidManifest.xml:337:13-60
	android:configChanges
		ADDED from D:\SpayAS_V2.0.0_security\app\src\main\AndroidManifest.xml:333:13-63
	android:name
		ADDED from D:\SpayAS_V2.0.0_security\app\src\main\AndroidManifest.xml:332:13-85
activity#cn.swiftpass.enterprise.ui.activity.AddCodeActivity
ADDED from D:\SpayAS_V2.0.0_security\app\src\main\AndroidManifest.xml:338:9-344:72
	android:screenOrientation
		ADDED from D:\SpayAS_V2.0.0_security\app\src\main\AndroidManifest.xml:342:13-49
	android:hardwareAccelerated
		ADDED from D:\SpayAS_V2.0.0_security\app\src\main\AndroidManifest.xml:341:13-47
	android:launchMode
		ADDED from D:\SpayAS_V2.0.0_security\app\src\main\AndroidManifest.xml:343:13-44
	android:windowSoftInputMode
		ADDED from D:\SpayAS_V2.0.0_security\app\src\main\AndroidManifest.xml:344:13-60
	android:configChanges
		ADDED from D:\SpayAS_V2.0.0_security\app\src\main\AndroidManifest.xml:340:13-63
	android:name
		ADDED from D:\SpayAS_V2.0.0_security\app\src\main\AndroidManifest.xml:339:13-79
activity#cn.swiftpass.enterprise.ui.activity.setCashierDeskNameyActivity
ADDED from D:\SpayAS_V2.0.0_security\app\src\main\AndroidManifest.xml:345:9-351:72
	android:screenOrientation
		ADDED from D:\SpayAS_V2.0.0_security\app\src\main\AndroidManifest.xml:349:13-49
	android:hardwareAccelerated
		ADDED from D:\SpayAS_V2.0.0_security\app\src\main\AndroidManifest.xml:348:13-47
	android:launchMode
		ADDED from D:\SpayAS_V2.0.0_security\app\src\main\AndroidManifest.xml:350:13-44
	android:windowSoftInputMode
		ADDED from D:\SpayAS_V2.0.0_security\app\src\main\AndroidManifest.xml:351:13-60
	android:configChanges
		ADDED from D:\SpayAS_V2.0.0_security\app\src\main\AndroidManifest.xml:347:13-63
	android:name
		ADDED from D:\SpayAS_V2.0.0_security\app\src\main\AndroidManifest.xml:346:13-91
activity#cn.swiftpass.enterprise.ui.activity.scan.CodeListActivity
ADDED from D:\SpayAS_V2.0.0_security\app\src\main\AndroidManifest.xml:352:9-358:72
	android:screenOrientation
		ADDED from D:\SpayAS_V2.0.0_security\app\src\main\AndroidManifest.xml:356:13-49
	android:hardwareAccelerated
		ADDED from D:\SpayAS_V2.0.0_security\app\src\main\AndroidManifest.xml:355:13-47
	android:launchMode
		ADDED from D:\SpayAS_V2.0.0_security\app\src\main\AndroidManifest.xml:357:13-44
	android:windowSoftInputMode
		ADDED from D:\SpayAS_V2.0.0_security\app\src\main\AndroidManifest.xml:358:13-60
	android:configChanges
		ADDED from D:\SpayAS_V2.0.0_security\app\src\main\AndroidManifest.xml:354:13-63
	android:name
		ADDED from D:\SpayAS_V2.0.0_security\app\src\main\AndroidManifest.xml:353:13-85
activity#cn.swiftpass.enterprise.ui.activity.shop.ShopkeeperActivity
ADDED from D:\SpayAS_V2.0.0_security\app\src\main\AndroidManifest.xml:363:9-366:46
	android:screenOrientation
		ADDED from D:\SpayAS_V2.0.0_security\app\src\main\AndroidManifest.xml:365:13-49
	android:launchMode
		ADDED from D:\SpayAS_V2.0.0_security\app\src\main\AndroidManifest.xml:366:13-44
	android:name
		ADDED from D:\SpayAS_V2.0.0_security\app\src\main\AndroidManifest.xml:364:13-87
activity#cn.swiftpass.enterprise.ui.activity.SetCodeMoneyActivity
ADDED from D:\SpayAS_V2.0.0_security\app\src\main\AndroidManifest.xml:373:9-376:46
	android:screenOrientation
		ADDED from D:\SpayAS_V2.0.0_security\app\src\main\AndroidManifest.xml:375:13-49
	android:launchMode
		ADDED from D:\SpayAS_V2.0.0_security\app\src\main\AndroidManifest.xml:376:13-44
	android:name
		ADDED from D:\SpayAS_V2.0.0_security\app\src\main\AndroidManifest.xml:374:13-84
activity#cn.swiftpass.enterprise.ui.activity.user.FindPassFirstActivity
ADDED from D:\SpayAS_V2.0.0_security\app\src\main\AndroidManifest.xml:379:9-382:46
	android:screenOrientation
		ADDED from D:\SpayAS_V2.0.0_security\app\src\main\AndroidManifest.xml:381:13-49
	android:launchMode
		ADDED from D:\SpayAS_V2.0.0_security\app\src\main\AndroidManifest.xml:382:13-44
	android:name
		ADDED from D:\SpayAS_V2.0.0_security\app\src\main\AndroidManifest.xml:380:13-90
activity#cn.swiftpass.enterprise.ui.activity.user.FindPassSubmitActivity
ADDED from D:\SpayAS_V2.0.0_security\app\src\main\AndroidManifest.xml:383:9-386:46
	android:screenOrientation
		ADDED from D:\SpayAS_V2.0.0_security\app\src\main\AndroidManifest.xml:385:13-49
	android:launchMode
		ADDED from D:\SpayAS_V2.0.0_security\app\src\main\AndroidManifest.xml:386:13-44
	android:name
		ADDED from D:\SpayAS_V2.0.0_security\app\src\main\AndroidManifest.xml:384:13-91
activity#cn.swiftpass.enterprise.ui.activity.user.FindPassSecondActivity
ADDED from D:\SpayAS_V2.0.0_security\app\src\main\AndroidManifest.xml:387:9-390:46
	android:screenOrientation
		ADDED from D:\SpayAS_V2.0.0_security\app\src\main\AndroidManifest.xml:389:13-49
	android:launchMode
		ADDED from D:\SpayAS_V2.0.0_security\app\src\main\AndroidManifest.xml:390:13-44
	android:name
		ADDED from D:\SpayAS_V2.0.0_security\app\src\main\AndroidManifest.xml:388:13-91
activity#cn.swiftpass.enterprise.ui.activity.user.UpdatePassWord
ADDED from D:\SpayAS_V2.0.0_security\app\src\main\AndroidManifest.xml:392:9-395:46
	android:screenOrientation
		ADDED from D:\SpayAS_V2.0.0_security\app\src\main\AndroidManifest.xml:394:13-49
	android:launchMode
		ADDED from D:\SpayAS_V2.0.0_security\app\src\main\AndroidManifest.xml:395:13-44
	android:name
		ADDED from D:\SpayAS_V2.0.0_security\app\src\main\AndroidManifest.xml:393:13-83
activity#cn.swiftpass.enterprise.ui.activity.user.TuiKuanPwdSettingActivity
ADDED from D:\SpayAS_V2.0.0_security\app\src\main\AndroidManifest.xml:398:9-401:46
	android:screenOrientation
		ADDED from D:\SpayAS_V2.0.0_security\app\src\main\AndroidManifest.xml:400:13-49
	android:launchMode
		ADDED from D:\SpayAS_V2.0.0_security\app\src\main\AndroidManifest.xml:401:13-44
	android:name
		ADDED from D:\SpayAS_V2.0.0_security\app\src\main\AndroidManifest.xml:399:13-94
activity#cn.swiftpass.enterprise.ui.activity.settle.SettleUserActivity
ADDED from D:\SpayAS_V2.0.0_security\app\src\main\AndroidManifest.xml:416:9-418:47
	android:launchMode
		ADDED from D:\SpayAS_V2.0.0_security\app\src\main\AndroidManifest.xml:418:13-44
	android:name
		ADDED from D:\SpayAS_V2.0.0_security\app\src\main\AndroidManifest.xml:417:13-89
activity#cn.swiftpass.enterprise.ui.activity.NoteMarkActivity
ADDED from D:\SpayAS_V2.0.0_security\app\src\main\AndroidManifest.xml:420:9-425:24
	android:screenOrientation
		ADDED from D:\SpayAS_V2.0.0_security\app\src\main\AndroidManifest.xml:422:13-49
	android:windowSoftInputMode
		ADDED from D:\SpayAS_V2.0.0_security\app\src\main\AndroidManifest.xml:424:13-52
	android:theme
		ADDED from D:\SpayAS_V2.0.0_security\app\src\main\AndroidManifest.xml:423:13-53
	android:name
		ADDED from D:\SpayAS_V2.0.0_security\app\src\main\AndroidManifest.xml:421:13-80
activity#cn.swiftpass.enterprise.ui.activity.SetPayMethodActivity
ADDED from D:\SpayAS_V2.0.0_security\app\src\main\AndroidManifest.xml:454:9-456:46
	android:launchMode
		ADDED from D:\SpayAS_V2.0.0_security\app\src\main\AndroidManifest.xml:456:13-43
	android:name
		ADDED from D:\SpayAS_V2.0.0_security\app\src\main\AndroidManifest.xml:455:13-84
activity#cn.swiftpass.enterprise.ui.activity.StaticCodeActivity
ADDED from D:\SpayAS_V2.0.0_security\app\src\main\AndroidManifest.xml:457:9-460:51
	android:screenOrientation
		ADDED from D:\SpayAS_V2.0.0_security\app\src\main\AndroidManifest.xml:460:13-49
	android:launchMode
		ADDED from D:\SpayAS_V2.0.0_security\app\src\main\AndroidManifest.xml:459:13-43
	android:name
		ADDED from D:\SpayAS_V2.0.0_security\app\src\main\AndroidManifest.xml:458:13-82
activity#cn.swiftpass.enterprise.ui.activity.user.ReplactTelActivity
ADDED from D:\SpayAS_V2.0.0_security\app\src\main\AndroidManifest.xml:465:9-467:46
	android:launchMode
		ADDED from D:\SpayAS_V2.0.0_security\app\src\main\AndroidManifest.xml:467:13-43
	android:name
		ADDED from D:\SpayAS_V2.0.0_security\app\src\main\AndroidManifest.xml:466:13-87
activity#cn.swiftpass.enterprise.bussiness.logica.user.RefundManagerActitvity
ADDED from D:\SpayAS_V2.0.0_security\app\src\main\AndroidManifest.xml:468:9-470:46
	android:launchMode
		ADDED from D:\SpayAS_V2.0.0_security\app\src\main\AndroidManifest.xml:470:13-43
	android:name
		ADDED from D:\SpayAS_V2.0.0_security\app\src\main\AndroidManifest.xml:469:13-96
activity#cn.swiftpass.enterprise.ui.activity.user.CashierAddActivity
ADDED from D:\SpayAS_V2.0.0_security\app\src\main\AndroidManifest.xml:471:9-475:62
	android:screenOrientation
		ADDED from D:\SpayAS_V2.0.0_security\app\src\main\AndroidManifest.xml:474:13-49
	android:launchMode
		ADDED from D:\SpayAS_V2.0.0_security\app\src\main\AndroidManifest.xml:473:13-43
	android:windowSoftInputMode
		ADDED from D:\SpayAS_V2.0.0_security\app\src\main\AndroidManifest.xml:475:13-60
	android:name
		ADDED from D:\SpayAS_V2.0.0_security\app\src\main\AndroidManifest.xml:472:13-87
activity#cn.swiftpass.enterprise.ui.activity.user.CashierNameModifyActivity
ADDED from D:\SpayAS_V2.0.0_security\app\src\main\AndroidManifest.xml:476:9-478:46
	android:launchMode
		ADDED from D:\SpayAS_V2.0.0_security\app\src\main\AndroidManifest.xml:478:13-43
	android:name
		ADDED from D:\SpayAS_V2.0.0_security\app\src\main\AndroidManifest.xml:477:13-94
activity#cn.swiftpass.enterprise.ui.activity.CashierDeskSettingActivity
ADDED from D:\SpayAS_V2.0.0_security\app\src\main\AndroidManifest.xml:480:9-482:46
	android:launchMode
		ADDED from D:\SpayAS_V2.0.0_security\app\src\main\AndroidManifest.xml:482:13-43
	android:name
		ADDED from D:\SpayAS_V2.0.0_security\app\src\main\AndroidManifest.xml:481:13-90
activity#cn.swiftpass.enterprise.ui.activity.CashierManager
ADDED from D:\SpayAS_V2.0.0_security\app\src\main\AndroidManifest.xml:484:9-487:51
	android:screenOrientation
		ADDED from D:\SpayAS_V2.0.0_security\app\src\main\AndroidManifest.xml:487:13-49
	android:launchMode
		ADDED from D:\SpayAS_V2.0.0_security\app\src\main\AndroidManifest.xml:486:13-43
	android:name
		ADDED from D:\SpayAS_V2.0.0_security\app\src\main\AndroidManifest.xml:485:13-78
activity#cn.swiftpass.enterprise.ui.activity.RefundOrderDetailsActivity
ADDED from D:\SpayAS_V2.0.0_security\app\src\main\AndroidManifest.xml:488:9-490:46
	android:launchMode
		ADDED from D:\SpayAS_V2.0.0_security\app\src\main\AndroidManifest.xml:490:13-43
	android:name
		ADDED from D:\SpayAS_V2.0.0_security\app\src\main\AndroidManifest.xml:489:13-90
activity#cn.swiftpass.enterprise.ui.activity.RefundOrderListActivity
ADDED from D:\SpayAS_V2.0.0_security\app\src\main\AndroidManifest.xml:491:9-493:46
	android:launchMode
		ADDED from D:\SpayAS_V2.0.0_security\app\src\main\AndroidManifest.xml:493:13-43
	android:name
		ADDED from D:\SpayAS_V2.0.0_security\app\src\main\AndroidManifest.xml:492:13-87
activity#cn.swiftpass.enterprise.ui.activity.user.RefundRecordOrderDetailsActivity
ADDED from D:\SpayAS_V2.0.0_security\app\src\main\AndroidManifest.xml:495:9-497:46
	android:launchMode
		ADDED from D:\SpayAS_V2.0.0_security\app\src\main\AndroidManifest.xml:497:13-43
	android:name
		ADDED from D:\SpayAS_V2.0.0_security\app\src\main\AndroidManifest.xml:496:13-101
activity#cn.swiftpass.enterprise.ui.activity.user.VerificationDetails
ADDED from D:\SpayAS_V2.0.0_security\app\src\main\AndroidManifest.xml:499:9-501:55
	android:launchMode
		ADDED from D:\SpayAS_V2.0.0_security\app\src\main\AndroidManifest.xml:501:13-43
	android:name
		ADDED from D:\SpayAS_V2.0.0_security\app\src\main\AndroidManifest.xml:500:13-88
activity#cn.swiftpass.enterprise.print.BluetoothDeviceList
ADDED from D:\SpayAS_V2.0.0_security\app\src\main\AndroidManifest.xml:502:9-505:68
	android:launchMode
		ADDED from D:\SpayAS_V2.0.0_security\app\src\main\AndroidManifest.xml:504:13-43
	android:theme
		ADDED from D:\SpayAS_V2.0.0_security\app\src\main\AndroidManifest.xml:505:13-56
	android:name
		ADDED from D:\SpayAS_V2.0.0_security\app\src\main\AndroidManifest.xml:503:13-77
activity#cn.swiftpass.enterprise.ui.activity.ConfirmPayActivity
ADDED from D:\SpayAS_V2.0.0_security\app\src\main\AndroidManifest.xml:507:9-509:55
	android:launchMode
		ADDED from D:\SpayAS_V2.0.0_security\app\src\main\AndroidManifest.xml:509:13-43
	android:name
		ADDED from D:\SpayAS_V2.0.0_security\app\src\main\AndroidManifest.xml:508:13-82
activity#cn.swiftpass.enterprise.ui.activity.DescriptionActivity
ADDED from D:\SpayAS_V2.0.0_security\app\src\main\AndroidManifest.xml:512:9-514:55
	android:launchMode
		ADDED from D:\SpayAS_V2.0.0_security\app\src\main\AndroidManifest.xml:514:13-43
	android:name
		ADDED from D:\SpayAS_V2.0.0_security\app\src\main\AndroidManifest.xml:513:13-83
activity#cn.swiftpass.enterprise.ui.activity.user.SetNewPassSuccActivity
ADDED from D:\SpayAS_V2.0.0_security\app\src\main\AndroidManifest.xml:516:9-518:55
	android:launchMode
		ADDED from D:\SpayAS_V2.0.0_security\app\src\main\AndroidManifest.xml:518:13-43
	android:name
		ADDED from D:\SpayAS_V2.0.0_security\app\src\main\AndroidManifest.xml:517:13-91
activity#cn.swiftpass.enterprise.ui.activity.OneDiCodeActivity
ADDED from D:\SpayAS_V2.0.0_security\app\src\main\AndroidManifest.xml:521:9-524:75
	android:screenOrientation
		ADDED from D:\SpayAS_V2.0.0_security\app\src\main\AndroidManifest.xml:523:13-49
	android:windowSoftInputMode
		ADDED from D:\SpayAS_V2.0.0_security\app\src\main\AndroidManifest.xml:524:13-72
	android:name
		ADDED from D:\SpayAS_V2.0.0_security\app\src\main\AndroidManifest.xml:522:13-81
activity#cn.swiftpass.enterprise.ui.activity.scan.ActivateScanOneActivity
ADDED from D:\SpayAS_V2.0.0_security\app\src\main\AndroidManifest.xml:526:9-528:46
	android:launchMode
		ADDED from D:\SpayAS_V2.0.0_security\app\src\main\AndroidManifest.xml:528:13-43
	android:name
		ADDED from D:\SpayAS_V2.0.0_security\app\src\main\AndroidManifest.xml:527:13-92
activity#cn.swiftpass.enterprise.ui.activity.scan.ActivateScanTwoActivity
ADDED from D:\SpayAS_V2.0.0_security\app\src\main\AndroidManifest.xml:529:9-531:46
	android:launchMode
		ADDED from D:\SpayAS_V2.0.0_security\app\src\main\AndroidManifest.xml:531:13-43
	android:name
		ADDED from D:\SpayAS_V2.0.0_security\app\src\main\AndroidManifest.xml:530:13-92
activity#cn.swiftpass.enterprise.ui.activity.setting.SettingCDNActivity
ADDED from D:\SpayAS_V2.0.0_security\app\src\main\AndroidManifest.xml:533:9-535:46
	android:launchMode
		ADDED from D:\SpayAS_V2.0.0_security\app\src\main\AndroidManifest.xml:535:13-43
	android:name
		ADDED from D:\SpayAS_V2.0.0_security\app\src\main\AndroidManifest.xml:534:13-90
meta-data#PUSH_APPID
ADDED from D:\SpayAS_V2.0.0_security\app\src\main\AndroidManifest.xml:539:9-541:54
	android:value
		ADDED from D:\SpayAS_V2.0.0_security\app\src\main\AndroidManifest.xml:541:13-51
	android:name
		ADDED from D:\SpayAS_V2.0.0_security\app\src\main\AndroidManifest.xml:540:13-38
meta-data#PUSH_APPKEY
ADDED from D:\SpayAS_V2.0.0_security\app\src\main\AndroidManifest.xml:542:9-544:54
	android:value
		ADDED from D:\SpayAS_V2.0.0_security\app\src\main\AndroidManifest.xml:544:13-51
	android:name
		ADDED from D:\SpayAS_V2.0.0_security\app\src\main\AndroidManifest.xml:543:13-39
meta-data#PUSH_APPSECRET
ADDED from D:\SpayAS_V2.0.0_security\app\src\main\AndroidManifest.xml:545:9-547:54
	android:value
		ADDED from D:\SpayAS_V2.0.0_security\app\src\main\AndroidManifest.xml:547:13-51
	android:name
		ADDED from D:\SpayAS_V2.0.0_security\app\src\main\AndroidManifest.xml:546:13-42
service#com.igexin.sdk.PushService
ADDED from D:\SpayAS_V2.0.0_security\app\src\main\AndroidManifest.xml:560:9-568:19
	android:process
		ADDED from D:\SpayAS_V2.0.0_security\app\src\main\AndroidManifest.xml:564:13-43
	android:label
		ADDED from D:\SpayAS_V2.0.0_security\app\src\main\AndroidManifest.xml:563:13-47
	android:exported
		ADDED from D:\SpayAS_V2.0.0_security\app\src\main\AndroidManifest.xml:562:13-36
	android:name
		ADDED from D:\SpayAS_V2.0.0_security\app\src\main\AndroidManifest.xml:561:13-54
intent-filter#com.igexin.sdk.action.service.message
ADDED from D:\SpayAS_V2.0.0_security\app\src\main\AndroidManifest.xml:565:13-567:29
action#com.igexin.sdk.action.service.message
ADDED from D:\SpayAS_V2.0.0_security\app\src\main\AndroidManifest.xml:566:17-80
	android:name
		ADDED from D:\SpayAS_V2.0.0_security\app\src\main\AndroidManifest.xml:566:25-77
receiver#com.igexin.sdk.PushReceiver
ADDED from D:\SpayAS_V2.0.0_security\app\src\main\AndroidManifest.xml:571:9-582:20
	android:name
		ADDED from D:\SpayAS_V2.0.0_security\app\src\main\AndroidManifest.xml:571:19-61
intent-filter#android.intent.action.ACTION_POWER_CONNECTED+android.intent.action.ACTION_POWER_DISCONNECTED+android.intent.action.BOOT_COMPLETED+android.intent.action.MEDIA_MOUNTED+android.intent.action.USER_PRESENT+android.net.conn.CONNECTIVITY_CHANGE+com.igexin.sdk.action.refreshls
ADDED from D:\SpayAS_V2.0.0_security\app\src\main\AndroidManifest.xml:572:13-581:29
action#android.intent.action.BOOT_COMPLETED
ADDED from D:\SpayAS_V2.0.0_security\app\src\main\AndroidManifest.xml:573:17-79
	android:name
		ADDED from D:\SpayAS_V2.0.0_security\app\src\main\AndroidManifest.xml:573:25-76
action#android.net.conn.CONNECTIVITY_CHANGE
ADDED from D:\SpayAS_V2.0.0_security\app\src\main\AndroidManifest.xml:574:17-79
	android:name
		ADDED from D:\SpayAS_V2.0.0_security\app\src\main\AndroidManifest.xml:574:25-76
action#android.intent.action.USER_PRESENT
ADDED from D:\SpayAS_V2.0.0_security\app\src\main\AndroidManifest.xml:575:17-77
	android:name
		ADDED from D:\SpayAS_V2.0.0_security\app\src\main\AndroidManifest.xml:575:25-74
action#com.igexin.sdk.action.refreshls
ADDED from D:\SpayAS_V2.0.0_security\app\src\main\AndroidManifest.xml:576:17-74
	android:name
		ADDED from D:\SpayAS_V2.0.0_security\app\src\main\AndroidManifest.xml:576:25-71
action#android.intent.action.MEDIA_MOUNTED
ADDED from D:\SpayAS_V2.0.0_security\app\src\main\AndroidManifest.xml:578:17-78
	android:name
		ADDED from D:\SpayAS_V2.0.0_security\app\src\main\AndroidManifest.xml:578:25-75
action#android.intent.action.ACTION_POWER_CONNECTED
ADDED from D:\SpayAS_V2.0.0_security\app\src\main\AndroidManifest.xml:579:17-87
	android:name
		ADDED from D:\SpayAS_V2.0.0_security\app\src\main\AndroidManifest.xml:579:25-84
action#android.intent.action.ACTION_POWER_DISCONNECTED
ADDED from D:\SpayAS_V2.0.0_security\app\src\main\AndroidManifest.xml:580:17-90
	android:name
		ADDED from D:\SpayAS_V2.0.0_security\app\src\main\AndroidManifest.xml:580:25-87
activity#com.igexin.sdk.PushActivity
ADDED from D:\SpayAS_V2.0.0_security\app\src\main\AndroidManifest.xml:585:9-591:84
	android:process
		ADDED from D:\SpayAS_V2.0.0_security\app\src\main\AndroidManifest.xml:589:13-43
	android:excludeFromRecents
		ADDED from D:\SpayAS_V2.0.0_security\app\src\main\AndroidManifest.xml:587:13-46
	android:exported
		ADDED from D:\SpayAS_V2.0.0_security\app\src\main\AndroidManifest.xml:588:13-37
	android:theme
		ADDED from D:\SpayAS_V2.0.0_security\app\src\main\AndroidManifest.xml:591:13-72
	android:taskAffinity
		ADDED from D:\SpayAS_V2.0.0_security\app\src\main\AndroidManifest.xml:590:13-67
	android:name
		ADDED from D:\SpayAS_V2.0.0_security\app\src\main\AndroidManifest.xml:586:13-55
activity#com.igexin.sdk.GActivity
ADDED from D:\SpayAS_V2.0.0_security\app\src\main\AndroidManifest.xml:593:9-599:75
	android:process
		ADDED from D:\SpayAS_V2.0.0_security\app\src\main\AndroidManifest.xml:597:13-43
	android:excludeFromRecents
		ADDED from D:\SpayAS_V2.0.0_security\app\src\main\AndroidManifest.xml:595:13-46
	android:exported
		ADDED from D:\SpayAS_V2.0.0_security\app\src\main\AndroidManifest.xml:596:13-36
	android:theme
		ADDED from D:\SpayAS_V2.0.0_security\app\src\main\AndroidManifest.xml:599:13-72
	android:taskAffinity
		ADDED from D:\SpayAS_V2.0.0_security\app\src\main\AndroidManifest.xml:598:13-67
	android:name
		ADDED from D:\SpayAS_V2.0.0_security\app\src\main\AndroidManifest.xml:594:13-52
service#cn.swiftpass.enterprise.broadcast.GTPushIntentService
ADDED from D:\SpayAS_V2.0.0_security\app\src\main\AndroidManifest.xml:601:9-89
	android:name
		ADDED from D:\SpayAS_V2.0.0_security\app\src\main\AndroidManifest.xml:601:18-86
service#cn.swiftpass.enterprise.broadcast.GTPushService
ADDED from D:\SpayAS_V2.0.0_security\app\src\main\AndroidManifest.xml:602:9-605:54
	android:process
		ADDED from D:\SpayAS_V2.0.0_security\app\src\main\AndroidManifest.xml:605:13-43
	android:exported
		ADDED from D:\SpayAS_V2.0.0_security\app\src\main\AndroidManifest.xml:604:13-37
	android:name
		ADDED from D:\SpayAS_V2.0.0_security\app\src\main\AndroidManifest.xml:603:13-75
service#cn.swiftpass.enterprise.ui.activity.live.PlayerMusicService
ADDED from D:\SpayAS_V2.0.0_security\app\src\main\AndroidManifest.xml:607:9-611:47
	android:enabled
		ADDED from D:\SpayAS_V2.0.0_security\app\src\main\AndroidManifest.xml:609:13-35
	android:process
		ADDED from D:\SpayAS_V2.0.0_security\app\src\main\AndroidManifest.xml:611:13-44
	android:exported
		ADDED from D:\SpayAS_V2.0.0_security\app\src\main\AndroidManifest.xml:610:13-36
	android:name
		ADDED from D:\SpayAS_V2.0.0_security\app\src\main\AndroidManifest.xml:608:13-87
service#cn.swiftpass.enterprise.ui.activity.live.ForegroundLiveService$InnerService
ADDED from D:\SpayAS_V2.0.0_security\app\src\main\AndroidManifest.xml:616:9-111
	android:name
		ADDED from D:\SpayAS_V2.0.0_security\app\src\main\AndroidManifest.xml:616:18-108
service#cn.swiftpass.enterprise.ui.activity.live.ForegroundLiveService
ADDED from D:\SpayAS_V2.0.0_security\app\src\main\AndroidManifest.xml:617:9-97
	android:name
		ADDED from D:\SpayAS_V2.0.0_security\app\src\main\AndroidManifest.xml:617:18-95
service#cn.swiftpass.enterprise.ui.activity.live.AliveJobService
ADDED from D:\SpayAS_V2.0.0_security\app\src\main\AndroidManifest.xml:618:9-620:72
	android:permission
		ADDED from D:\SpayAS_V2.0.0_security\app\src\main\AndroidManifest.xml:620:13-69
	android:name
		ADDED from D:\SpayAS_V2.0.0_security\app\src\main\AndroidManifest.xml:619:13-84
