{
  "project_info": {
    "project_number": "120387690088",
    "firebase_url": "https://spay-global-1ce0a.firebaseio.com",
    "project_id": "spay-global-1ce0a",
    "storage_bucket": "spay-global-1ce0a.appspot.com"
  },
  "client": [
    {
      "client_info": {
        "mobilesdk_app_id": "1:120387690088:android:3afb3b9edf162671",
        "android_client_info": {
          "package_name": "cn.swiftpass.enterprise.overseas.android.bdo_and"
        }
      },
      "oauth_client": [
        {
          "client_id": "120387690088-fk8e14n33cer7utpteo5usaa3fml5s16.apps.googleusercontent.com",
          "client_type": 1,
          "android_info": {
            "package_name": "cn.swiftpass.enterprise.overseas.android.bdo_and",
            "certificate_hash": "808fa8d03043200f379ac738e569116f7942d9d0"
          }
        },
        {
          "client_id": "120387690088-prcndnq37qk42q1kilcj36nud95m27i8.apps.googleusercontent.com",
          "client_type": 3
        }
      ],
      "api_key": [
        {
          "current_key": "AIzaSyDpmCkVcXiQvBTk08DjBz3UH407u69hVoo"
        }
      ],
      "services": {
        "appinvite_service": {
          "other_platform_oauth_client": [
            {
              "client_id": "120387690088-prcndnq37qk42q1kilcj36nud95m27i8.apps.googleusercontent.com",
              "client_type": 3
            }
          ]
        }
      }
    }
  ],
  "configuration_version": "1"
}